…
```r
scale01 <- function(x) {
  rng <- range(x, na.rm = TRUE)
  (x - rng[1]) / (rng[2] - rng[1])
}
```


```r
modify_if(diamonds, is.numeric, scale01)
```

```
## # A tibble: 53,940 × 10
##      carat cut       color clarity depth table     price     x      y      z
##      <dbl> <ord>     <ord> <ord>   <dbl> <dbl>     <dbl> <dbl>  <dbl>  <dbl>
##  1 0.00624 Ideal     E     SI2     0.514 0.231 0         0.368 0.0676 0.0764
##  2 0.00208 Premium   E     SI1     0.467 0.346 0         0.362 0.0652 0.0726
##  3 0.00624 Good      E     VS1     0.386 0.423 0.0000541 0.377 0.0691 0.0726
##  4 0.0187  Premium   I     VS2     0.539 0.288 0.000433  0.391 0.0718 0.0827
##  5 0.0229  Good      J     SI2     0.564 0.288 0.000487  0.404 0.0739 0.0865
##  6 0.00832 Very Good J     VVS2    0.55  0.269 0.000541  0.367 0.0672 0.0780
##  7 0.00832 Very Good I     VVS1    0.536 0.269 0.000541  0.368 0.0676 0.0777
##  8 0.0125  Very Good H     SI1     0.525 0.231 0.000595  0.379 0.0698 0.0796
##  9 0.00416 Fair      E     VS2     0.614 0.346 0.000595  0.360 0.0642 0.0783
## 10 0.00624 Very Good H     VS1     0.456 0.346 0.000649  0.372 0.0688 0.0752
## # … with 53,930 more rows
```
…
