…
```
## function (x, w, ...) 
## .Date(weighted.mean(unclass(x), w, ...))
## <bytecode: 0x12b083e40>
## <environment: namespace:stats>
```



```r
s3_methods_generic("print")
```

```
## # A tibble: 306 × 4
##    generic class    visible source             
##    <chr>   <chr>    <lgl>   <chr>              
##  1 print   acf      FALSE   registered S3method
##  2 print   AES      FALSE   registered S3method
##  3 print   all_vars FALSE   registered S3method
##  4 print   anova    FALSE   registered S3method
##  5 print   any_vars FALSE   registered S3method
##  6 print   aov      FALSE   registered S3method
##  7 print   aovlist  FALSE   registered S3method
##  8 print   ar       FALSE   registered S3method
##  9 print   Arima    FALSE   registered S3method
## 10 print   arima0   FALSE   registered S3method
## # … with 296 more rows
```
…
```r
fxns <- tibble(fn_name=ls("package:base")) %>%
    filter(map_lgl(fn_name, ~ {get(.) %>% is_function()})) %>%
  filter(map_lgl(fn_name, is_s3_generic)) %>%
  mutate(methods=map(fn_name, s3_methods_generic)) %>%
  mutate(n.methods=map_int(methods, nrow)) %>%
  arrange(desc(n.methods))

fxns
```

```
## # A tibble: 172 × 3
##    fn_name       methods            n.methods
##    <chr>         <list>                 <int>
##  1 print         <tibble [307 × 4]>       307
##  2 format        <tibble [137 × 4]>       137
##  3 [             <tibble [58 × 4]>         58
##  4 summary       <tibble [44 × 4]>         44
##  5 as.character  <tibble [41 × 4]>         41
##  6 plot          <tibble [34 × 4]>         34
##  7 as.data.frame <tibble [33 × 4]>         33
##  8 [[            <tibble [25 × 4]>         25
##  9 [<-           <tibble [21 × 4]>         21
## 10 c             <tibble [19 × 4]>         19
## # … with 162 more rows
```
…
